C =1.0, Accuracy:48.0 %
              precision    recall  f1-score   support

      ceplok       0.00      0.00      0.00        16
      kawung       1.00      0.30      0.47        23
       nitik       0.00      0.00      0.00        23
      parang       0.45      1.00      0.62        53
       semen       0.00      0.00      0.00        10

   micro avg       0.48      0.48      0.48       125
   macro avg       0.29      0.26      0.22       125
weighted avg       0.37      0.48      0.35       125
C =1.125, Accuracy:50.4 %
              precision    recall  f1-score   support

      ceplok       0.00      0.00      0.00        16
      kawung       1.00      0.30      0.47        23
       nitik       1.00      0.04      0.08        23
      parang       0.46      1.00      0.63        53
       semen       1.00      0.20      0.33        10

   micro avg       0.50      0.50      0.50       125
   macro avg       0.69      0.31      0.30       125
weighted avg       0.64      0.50      0.40       125
C =1.25, Accuracy:52.800000000000004 %
              precision    recall  f1-score   support

      ceplok       1.00      0.06      0.12        16
      kawung       1.00      0.35      0.52        23
       nitik       1.00      0.09      0.16        23
      parang       0.47      1.00      0.64        53
       semen       1.00      0.20      0.33        10

   micro avg       0.53      0.53      0.53       125
   macro avg       0.89      0.34      0.35       125
weighted avg       0.78      0.53      0.44       125
C =1.375, Accuracy:55.2 %
              precision    recall  f1-score   support

      ceplok       1.00      0.06      0.12        16
      kawung       1.00      0.43      0.61        23
       nitik       1.00      0.13      0.23        23
      parang       0.49      1.00      0.65        53
       semen       1.00      0.20      0.33        10

   micro avg       0.55      0.55      0.55       125
   macro avg       0.90      0.37      0.39       125
weighted avg       0.78      0.55      0.47       125
C =1.5, Accuracy:55.2 %
              precision    recall  f1-score   support

      ceplok       1.00      0.06      0.12        16
      kawung       1.00      0.43      0.61        23
       nitik       1.00      0.13      0.23        23
      parang       0.49      1.00      0.65        53
       semen       1.00      0.20      0.33        10

   micro avg       0.55      0.55      0.55       125
   macro avg       0.90      0.37      0.39       125
weighted avg       0.78      0.55      0.47       125
C =1.625, Accuracy:55.2 %
              precision    recall  f1-score   support

      ceplok       1.00      0.06      0.12        16
      kawung       1.00      0.43      0.61        23
       nitik       1.00      0.13      0.23        23
      parang       0.49      1.00      0.65        53
       semen       1.00      0.20      0.33        10

   micro avg       0.55      0.55      0.55       125
   macro avg       0.90      0.37      0.39       125
weighted avg       0.78      0.55      0.47       125
C =1.75, Accuracy:55.2 %
              precision    recall  f1-score   support

      ceplok       1.00      0.06      0.12        16
      kawung       1.00      0.43      0.61        23
       nitik       1.00      0.13      0.23        23
      parang       0.49      1.00      0.65        53
       semen       1.00      0.20      0.33        10

   micro avg       0.55      0.55      0.55       125
   macro avg       0.90      0.37      0.39       125
weighted avg       0.78      0.55      0.47       125
C =1.875, Accuracy:55.2 %
              precision    recall  f1-score   support

      ceplok       1.00      0.06      0.12        16
      kawung       1.00      0.43      0.61        23
       nitik       1.00      0.13      0.23        23
      parang       0.49      1.00      0.65        53
       semen       1.00      0.20      0.33        10

   micro avg       0.55      0.55      0.55       125
   macro avg       0.90      0.37      0.39       125
weighted avg       0.78      0.55      0.47       125
C =2.0, Accuracy:55.2 %
              precision    recall  f1-score   support

      ceplok       1.00      0.06      0.12        16
      kawung       1.00      0.43      0.61        23
       nitik       1.00      0.13      0.23        23
      parang       0.49      1.00      0.65        53
       semen       1.00      0.20      0.33        10

   micro avg       0.55      0.55      0.55       125
   macro avg       0.90      0.37      0.39       125
weighted avg       0.78      0.55      0.47       125
C =2.125, Accuracy:55.2 %
              precision    recall  f1-score   support

      ceplok       1.00      0.06      0.12        16
      kawung       1.00      0.43      0.61        23
       nitik       1.00      0.13      0.23        23
      parang       0.49      1.00      0.65        53
       semen       1.00      0.20      0.33        10

   micro avg       0.55      0.55      0.55       125
   macro avg       0.90      0.37      0.39       125
weighted avg       0.78      0.55      0.47       125
C =2.25, Accuracy:55.2 %
              precision    recall  f1-score   support

      ceplok       1.00      0.06      0.12        16
      kawung       1.00      0.43      0.61        23
       nitik       1.00      0.13      0.23        23
      parang       0.49      1.00      0.65        53
       semen       1.00      0.20      0.33        10

   micro avg       0.55      0.55      0.55       125
   macro avg       0.90      0.37      0.39       125
weighted avg       0.78      0.55      0.47       125
C =2.375, Accuracy:55.2 %
              precision    recall  f1-score   support

      ceplok       1.00      0.06      0.12        16
      kawung       1.00      0.43      0.61        23
       nitik       1.00      0.13      0.23        23
      parang       0.49      1.00      0.65        53
       semen       1.00      0.20      0.33        10

   micro avg       0.55      0.55      0.55       125
   macro avg       0.90      0.37      0.39       125
weighted avg       0.78      0.55      0.47       125
C =2.5, Accuracy:55.2 %
              precision    recall  f1-score   support

      ceplok       1.00      0.06      0.12        16
      kawung       1.00      0.43      0.61        23
       nitik       1.00      0.13      0.23        23
      parang       0.49      1.00      0.65        53
       semen       1.00      0.20      0.33        10

   micro avg       0.55      0.55      0.55       125
   macro avg       0.90      0.37      0.39       125
weighted avg       0.78      0.55      0.47       125
C =2.625, Accuracy:55.2 %
              precision    recall  f1-score   support

      ceplok       1.00      0.06      0.12        16
      kawung       1.00      0.43      0.61        23
       nitik       1.00      0.13      0.23        23
      parang       0.49      1.00      0.65        53
       semen       1.00      0.20      0.33        10

   micro avg       0.55      0.55      0.55       125
   macro avg       0.90      0.37      0.39       125
weighted avg       0.78      0.55      0.47       125
C =2.75, Accuracy:55.2 %
              precision    recall  f1-score   support

      ceplok       1.00      0.06      0.12        16
      kawung       1.00      0.43      0.61        23
       nitik       1.00      0.13      0.23        23
      parang       0.49      1.00      0.65        53
       semen       1.00      0.20      0.33        10

   micro avg       0.55      0.55      0.55       125
   macro avg       0.90      0.37      0.39       125
weighted avg       0.78      0.55      0.47       125
C =2.875, Accuracy:55.2 %
              precision    recall  f1-score   support

      ceplok       1.00      0.06      0.12        16
      kawung       1.00      0.43      0.61        23
       nitik       1.00      0.13      0.23        23
      parang       0.49      1.00      0.65        53
       semen       1.00      0.20      0.33        10

   micro avg       0.55      0.55      0.55       125
   macro avg       0.90      0.37      0.39       125
weighted avg       0.78      0.55      0.47       125
C =3.0, Accuracy:55.2 %
              precision    recall  f1-score   support

      ceplok       1.00      0.06      0.12        16
      kawung       1.00      0.43      0.61        23
       nitik       1.00      0.13      0.23        23
      parang       0.49      1.00      0.65        53
       semen       1.00      0.20      0.33        10

   micro avg       0.55      0.55      0.55       125
   macro avg       0.90      0.37      0.39       125
weighted avg       0.78      0.55      0.47       125
C =3.125, Accuracy:55.2 %
              precision    recall  f1-score   support

      ceplok       1.00      0.06      0.12        16
      kawung       1.00      0.43      0.61        23
       nitik       1.00      0.13      0.23        23
      parang       0.49      1.00      0.65        53
       semen       1.00      0.20      0.33        10

   micro avg       0.55      0.55      0.55       125
   macro avg       0.90      0.37      0.39       125
weighted avg       0.78      0.55      0.47       125
C =3.25, Accuracy:55.2 %
              precision    recall  f1-score   support

      ceplok       1.00      0.06      0.12        16
      kawung       1.00      0.43      0.61        23
       nitik       1.00      0.13      0.23        23
      parang       0.49      1.00      0.65        53
       semen       1.00      0.20      0.33        10

   micro avg       0.55      0.55      0.55       125
   macro avg       0.90      0.37      0.39       125
weighted avg       0.78      0.55      0.47       125
C =3.375, Accuracy:55.2 %
              precision    recall  f1-score   support

      ceplok       1.00      0.06      0.12        16
      kawung       1.00      0.43      0.61        23
       nitik       1.00      0.13      0.23        23
      parang       0.49      1.00      0.65        53
       semen       1.00      0.20      0.33        10

   micro avg       0.55      0.55      0.55       125
   macro avg       0.90      0.37      0.39       125
weighted avg       0.78      0.55      0.47       125
C =3.5, Accuracy:55.2 %
              precision    recall  f1-score   support

      ceplok       1.00      0.06      0.12        16
      kawung       1.00      0.43      0.61        23
       nitik       1.00      0.13      0.23        23
      parang       0.49      1.00      0.65        53
       semen       1.00      0.20      0.33        10

   micro avg       0.55      0.55      0.55       125
   macro avg       0.90      0.37      0.39       125
weighted avg       0.78      0.55      0.47       125
C =3.625, Accuracy:55.2 %
              precision    recall  f1-score   support

      ceplok       1.00      0.06      0.12        16
      kawung       1.00      0.43      0.61        23
       nitik       1.00      0.13      0.23        23
      parang       0.49      1.00      0.65        53
       semen       1.00      0.20      0.33        10

   micro avg       0.55      0.55      0.55       125
   macro avg       0.90      0.37      0.39       125
weighted avg       0.78      0.55      0.47       125
C =3.75, Accuracy:55.2 %
              precision    recall  f1-score   support

      ceplok       1.00      0.06      0.12        16
      kawung       1.00      0.43      0.61        23
       nitik       1.00      0.13      0.23        23
      parang       0.49      1.00      0.65        53
       semen       1.00      0.20      0.33        10

   micro avg       0.55      0.55      0.55       125
   macro avg       0.90      0.37      0.39       125
weighted avg       0.78      0.55      0.47       125
C =3.875, Accuracy:55.2 %
              precision    recall  f1-score   support

      ceplok       1.00      0.06      0.12        16
      kawung       1.00      0.43      0.61        23
       nitik       1.00      0.13      0.23        23
      parang       0.49      1.00      0.65        53
       semen       1.00      0.20      0.33        10

   micro avg       0.55      0.55      0.55       125
   macro avg       0.90      0.37      0.39       125
weighted avg       0.78      0.55      0.47       125
C =4.0, Accuracy:55.2 %
              precision    recall  f1-score   support

      ceplok       1.00      0.06      0.12        16
      kawung       1.00      0.43      0.61        23
       nitik       1.00      0.13      0.23        23
      parang       0.49      1.00      0.65        53
       semen       1.00      0.20      0.33        10

   micro avg       0.55      0.55      0.55       125
   macro avg       0.90      0.37      0.39       125
weighted avg       0.78      0.55      0.47       125
C =4.125, Accuracy:55.2 %
              precision    recall  f1-score   support

      ceplok       1.00      0.06      0.12        16
      kawung       1.00      0.43      0.61        23
       nitik       1.00      0.13      0.23        23
      parang       0.49      1.00      0.65        53
       semen       1.00      0.20      0.33        10

   micro avg       0.55      0.55      0.55       125
   macro avg       0.90      0.37      0.39       125
weighted avg       0.78      0.55      0.47       125
C =4.25, Accuracy:55.2 %
              precision    recall  f1-score   support

      ceplok       1.00      0.06      0.12        16
      kawung       1.00      0.43      0.61        23
       nitik       1.00      0.13      0.23        23
      parang       0.49      1.00      0.65        53
       semen       1.00      0.20      0.33        10

   micro avg       0.55      0.55      0.55       125
   macro avg       0.90      0.37      0.39       125
weighted avg       0.78      0.55      0.47       125
C =4.375, Accuracy:55.2 %
              precision    recall  f1-score   support

      ceplok       1.00      0.06      0.12        16
      kawung       1.00      0.43      0.61        23
       nitik       1.00      0.13      0.23        23
      parang       0.49      1.00      0.65        53
       semen       1.00      0.20      0.33        10

   micro avg       0.55      0.55      0.55       125
   macro avg       0.90      0.37      0.39       125
weighted avg       0.78      0.55      0.47       125
C =4.5, Accuracy:55.2 %
              precision    recall  f1-score   support

      ceplok       1.00      0.06      0.12        16
      kawung       1.00      0.43      0.61        23
       nitik       1.00      0.13      0.23        23
      parang       0.49      1.00      0.65        53
       semen       1.00      0.20      0.33        10

   micro avg       0.55      0.55      0.55       125
   macro avg       0.90      0.37      0.39       125
weighted avg       0.78      0.55      0.47       125
C =4.625, Accuracy:55.2 %
              precision    recall  f1-score   support

      ceplok       1.00      0.06      0.12        16
      kawung       1.00      0.43      0.61        23
       nitik       1.00      0.13      0.23        23
      parang       0.49      1.00      0.65        53
       semen       1.00      0.20      0.33        10

   micro avg       0.55      0.55      0.55       125
   macro avg       0.90      0.37      0.39       125
weighted avg       0.78      0.55      0.47       125
C =4.75, Accuracy:55.2 %
              precision    recall  f1-score   support

      ceplok       1.00      0.06      0.12        16
      kawung       1.00      0.43      0.61        23
       nitik       1.00      0.13      0.23        23
      parang       0.49      1.00      0.65        53
       semen       1.00      0.20      0.33        10

   micro avg       0.55      0.55      0.55       125
   macro avg       0.90      0.37      0.39       125
weighted avg       0.78      0.55      0.47       125
C =4.875, Accuracy:55.2 %
              precision    recall  f1-score   support

      ceplok       1.00      0.06      0.12        16
      kawung       1.00      0.43      0.61        23
       nitik       1.00      0.13      0.23        23
      parang       0.49      1.00      0.65        53
       semen       1.00      0.20      0.33        10

   micro avg       0.55      0.55      0.55       125
   macro avg       0.90      0.37      0.39       125
weighted avg       0.78      0.55      0.47       125
C =5.0, Accuracy:55.2 %
              precision    recall  f1-score   support

      ceplok       1.00      0.06      0.12        16
      kawung       1.00      0.43      0.61        23
       nitik       1.00      0.13      0.23        23
      parang       0.49      1.00      0.65        53
       semen       1.00      0.20      0.33        10

   micro avg       0.55      0.55      0.55       125
   macro avg       0.90      0.37      0.39       125
weighted avg       0.78      0.55      0.47       125
C =5.125, Accuracy:55.2 %
              precision    recall  f1-score   support

      ceplok       1.00      0.06      0.12        16
      kawung       1.00      0.43      0.61        23
       nitik       1.00      0.13      0.23        23
      parang       0.49      1.00      0.65        53
       semen       1.00      0.20      0.33        10

   micro avg       0.55      0.55      0.55       125
   macro avg       0.90      0.37      0.39       125
weighted avg       0.78      0.55      0.47       125
C =5.25, Accuracy:55.2 %
              precision    recall  f1-score   support

      ceplok       1.00      0.06      0.12        16
      kawung       1.00      0.43      0.61        23
       nitik       1.00      0.13      0.23        23
      parang       0.49      1.00      0.65        53
       semen       1.00      0.20      0.33        10

   micro avg       0.55      0.55      0.55       125
   macro avg       0.90      0.37      0.39       125
weighted avg       0.78      0.55      0.47       125
C =5.375, Accuracy:55.2 %
              precision    recall  f1-score   support

      ceplok       1.00      0.06      0.12        16
      kawung       1.00      0.43      0.61        23
       nitik       1.00      0.13      0.23        23
      parang       0.49      1.00      0.65        53
       semen       1.00      0.20      0.33        10

   micro avg       0.55      0.55      0.55       125
   macro avg       0.90      0.37      0.39       125
weighted avg       0.78      0.55      0.47       125
C =5.5, Accuracy:55.2 %
              precision    recall  f1-score   support

      ceplok       1.00      0.06      0.12        16
      kawung       1.00      0.43      0.61        23
       nitik       1.00      0.13      0.23        23
      parang       0.49      1.00      0.65        53
       semen       1.00      0.20      0.33        10

   micro avg       0.55      0.55      0.55       125
   macro avg       0.90      0.37      0.39       125
weighted avg       0.78      0.55      0.47       125
C =5.625, Accuracy:55.2 %
              precision    recall  f1-score   support

      ceplok       1.00      0.06      0.12        16
      kawung       1.00      0.43      0.61        23
       nitik       1.00      0.13      0.23        23
      parang       0.49      1.00      0.65        53
       semen       1.00      0.20      0.33        10

   micro avg       0.55      0.55      0.55       125
   macro avg       0.90      0.37      0.39       125
weighted avg       0.78      0.55      0.47       125
C =5.75, Accuracy:55.2 %
              precision    recall  f1-score   support

      ceplok       1.00      0.06      0.12        16
      kawung       1.00      0.43      0.61        23
       nitik       1.00      0.13      0.23        23
      parang       0.49      1.00      0.65        53
       semen       1.00      0.20      0.33        10

   micro avg       0.55      0.55      0.55       125
   macro avg       0.90      0.37      0.39       125
weighted avg       0.78      0.55      0.47       125
C =5.875, Accuracy:55.2 %
              precision    recall  f1-score   support

      ceplok       1.00      0.06      0.12        16
      kawung       1.00      0.43      0.61        23
       nitik       1.00      0.13      0.23        23
      parang       0.49      1.00      0.65        53
       semen       1.00      0.20      0.33        10

   micro avg       0.55      0.55      0.55       125
   macro avg       0.90      0.37      0.39       125
weighted avg       0.78      0.55      0.47       125
C =6.0, Accuracy:55.2 %
              precision    recall  f1-score   support

      ceplok       1.00      0.06      0.12        16
      kawung       1.00      0.43      0.61        23
       nitik       1.00      0.13      0.23        23
      parang       0.49      1.00      0.65        53
       semen       1.00      0.20      0.33        10

   micro avg       0.55      0.55      0.55       125
   macro avg       0.90      0.37      0.39       125
weighted avg       0.78      0.55      0.47       125
C =6.125, Accuracy:55.2 %
              precision    recall  f1-score   support

      ceplok       1.00      0.06      0.12        16
      kawung       1.00      0.43      0.61        23
       nitik       1.00      0.13      0.23        23
      parang       0.49      1.00      0.65        53
       semen       1.00      0.20      0.33        10

   micro avg       0.55      0.55      0.55       125
   macro avg       0.90      0.37      0.39       125
weighted avg       0.78      0.55      0.47       125
C =6.25, Accuracy:55.2 %
              precision    recall  f1-score   support

      ceplok       1.00      0.06      0.12        16
      kawung       1.00      0.43      0.61        23
       nitik       1.00      0.13      0.23        23
      parang       0.49      1.00      0.65        53
       semen       1.00      0.20      0.33        10

   micro avg       0.55      0.55      0.55       125
   macro avg       0.90      0.37      0.39       125
weighted avg       0.78      0.55      0.47       125
C =6.375, Accuracy:55.2 %
              precision    recall  f1-score   support

      ceplok       1.00      0.06      0.12        16
      kawung       1.00      0.43      0.61        23
       nitik       1.00      0.13      0.23        23
      parang       0.49      1.00      0.65        53
       semen       1.00      0.20      0.33        10

   micro avg       0.55      0.55      0.55       125
   macro avg       0.90      0.37      0.39       125
weighted avg       0.78      0.55      0.47       125
C =6.5, Accuracy:55.2 %
              precision    recall  f1-score   support

      ceplok       1.00      0.06      0.12        16
      kawung       1.00      0.43      0.61        23
       nitik       1.00      0.13      0.23        23
      parang       0.49      1.00      0.65        53
       semen       1.00      0.20      0.33        10

   micro avg       0.55      0.55      0.55       125
   macro avg       0.90      0.37      0.39       125
weighted avg       0.78      0.55      0.47       125
C =6.625, Accuracy:55.2 %
              precision    recall  f1-score   support

      ceplok       1.00      0.06      0.12        16
      kawung       1.00      0.43      0.61        23
       nitik       1.00      0.13      0.23        23
      parang       0.49      1.00      0.65        53
       semen       1.00      0.20      0.33        10

   micro avg       0.55      0.55      0.55       125
   macro avg       0.90      0.37      0.39       125
weighted avg       0.78      0.55      0.47       125
C =6.75, Accuracy:55.2 %
              precision    recall  f1-score   support

      ceplok       1.00      0.06      0.12        16
      kawung       1.00      0.43      0.61        23
       nitik       1.00      0.13      0.23        23
      parang       0.49      1.00      0.65        53
       semen       1.00      0.20      0.33        10

   micro avg       0.55      0.55      0.55       125
   macro avg       0.90      0.37      0.39       125
weighted avg       0.78      0.55      0.47       125
C =6.875, Accuracy:55.2 %
              precision    recall  f1-score   support

      ceplok       1.00      0.06      0.12        16
      kawung       1.00      0.43      0.61        23
       nitik       1.00      0.13      0.23        23
      parang       0.49      1.00      0.65        53
       semen       1.00      0.20      0.33        10

   micro avg       0.55      0.55      0.55       125
   macro avg       0.90      0.37      0.39       125
weighted avg       0.78      0.55      0.47       125
C =7.0, Accuracy:55.2 %
              precision    recall  f1-score   support

      ceplok       1.00      0.06      0.12        16
      kawung       1.00      0.43      0.61        23
       nitik       1.00      0.13      0.23        23
      parang       0.49      1.00      0.65        53
       semen       1.00      0.20      0.33        10

   micro avg       0.55      0.55      0.55       125
   macro avg       0.90      0.37      0.39       125
weighted avg       0.78      0.55      0.47       125
C =7.125, Accuracy:55.2 %
              precision    recall  f1-score   support

      ceplok       1.00      0.06      0.12        16
      kawung       1.00      0.43      0.61        23
       nitik       1.00      0.13      0.23        23
      parang       0.49      1.00      0.65        53
       semen       1.00      0.20      0.33        10

   micro avg       0.55      0.55      0.55       125
   macro avg       0.90      0.37      0.39       125
weighted avg       0.78      0.55      0.47       125
C =7.25, Accuracy:55.2 %
              precision    recall  f1-score   support

      ceplok       1.00      0.06      0.12        16
      kawung       1.00      0.43      0.61        23
       nitik       1.00      0.13      0.23        23
      parang       0.49      1.00      0.65        53
       semen       1.00      0.20      0.33        10

   micro avg       0.55      0.55      0.55       125
   macro avg       0.90      0.37      0.39       125
weighted avg       0.78      0.55      0.47       125
C =7.375, Accuracy:55.2 %
              precision    recall  f1-score   support

      ceplok       1.00      0.06      0.12        16
      kawung       1.00      0.43      0.61        23
       nitik       1.00      0.13      0.23        23
      parang       0.49      1.00      0.65        53
       semen       1.00      0.20      0.33        10

   micro avg       0.55      0.55      0.55       125
   macro avg       0.90      0.37      0.39       125
weighted avg       0.78      0.55      0.47       125
C =7.5, Accuracy:55.2 %
              precision    recall  f1-score   support

      ceplok       1.00      0.06      0.12        16
      kawung       1.00      0.43      0.61        23
       nitik       1.00      0.13      0.23        23
      parang       0.49      1.00      0.65        53
       semen       1.00      0.20      0.33        10

   micro avg       0.55      0.55      0.55       125
   macro avg       0.90      0.37      0.39       125
weighted avg       0.78      0.55      0.47       125
C =7.625, Accuracy:55.2 %
              precision    recall  f1-score   support

      ceplok       1.00      0.06      0.12        16
      kawung       1.00      0.43      0.61        23
       nitik       1.00      0.13      0.23        23
      parang       0.49      1.00      0.65        53
       semen       1.00      0.20      0.33        10

   micro avg       0.55      0.55      0.55       125
   macro avg       0.90      0.37      0.39       125
weighted avg       0.78      0.55      0.47       125
C =7.75, Accuracy:55.2 %
              precision    recall  f1-score   support

      ceplok       1.00      0.06      0.12        16
      kawung       1.00      0.43      0.61        23
       nitik       1.00      0.13      0.23        23
      parang       0.49      1.00      0.65        53
       semen       1.00      0.20      0.33        10

   micro avg       0.55      0.55      0.55       125
   macro avg       0.90      0.37      0.39       125
weighted avg       0.78      0.55      0.47       125
C =7.875, Accuracy:55.2 %
              precision    recall  f1-score   support

      ceplok       1.00      0.06      0.12        16
      kawung       1.00      0.43      0.61        23
       nitik       1.00      0.13      0.23        23
      parang       0.49      1.00      0.65        53
       semen       1.00      0.20      0.33        10

   micro avg       0.55      0.55      0.55       125
   macro avg       0.90      0.37      0.39       125
weighted avg       0.78      0.55      0.47       125
C =8.0, Accuracy:55.2 %
              precision    recall  f1-score   support

      ceplok       1.00      0.06      0.12        16
      kawung       1.00      0.43      0.61        23
       nitik       1.00      0.13      0.23        23
      parang       0.49      1.00      0.65        53
       semen       1.00      0.20      0.33        10

   micro avg       0.55      0.55      0.55       125
   macro avg       0.90      0.37      0.39       125
weighted avg       0.78      0.55      0.47       125
C =8.125, Accuracy:55.2 %
              precision    recall  f1-score   support

      ceplok       1.00      0.06      0.12        16
      kawung       1.00      0.43      0.61        23
       nitik       1.00      0.13      0.23        23
      parang       0.49      1.00      0.65        53
       semen       1.00      0.20      0.33        10

   micro avg       0.55      0.55      0.55       125
   macro avg       0.90      0.37      0.39       125
weighted avg       0.78      0.55      0.47       125
C =8.25, Accuracy:55.2 %
              precision    recall  f1-score   support

      ceplok       1.00      0.06      0.12        16
      kawung       1.00      0.43      0.61        23
       nitik       1.00      0.13      0.23        23
      parang       0.49      1.00      0.65        53
       semen       1.00      0.20      0.33        10

   micro avg       0.55      0.55      0.55       125
   macro avg       0.90      0.37      0.39       125
weighted avg       0.78      0.55      0.47       125
C =8.375, Accuracy:55.2 %
              precision    recall  f1-score   support

      ceplok       1.00      0.06      0.12        16
      kawung       1.00      0.43      0.61        23
       nitik       1.00      0.13      0.23        23
      parang       0.49      1.00      0.65        53
       semen       1.00      0.20      0.33        10

   micro avg       0.55      0.55      0.55       125
   macro avg       0.90      0.37      0.39       125
weighted avg       0.78      0.55      0.47       125
C =8.5, Accuracy:55.2 %
              precision    recall  f1-score   support

      ceplok       1.00      0.06      0.12        16
      kawung       1.00      0.43      0.61        23
       nitik       1.00      0.13      0.23        23
      parang       0.49      1.00      0.65        53
       semen       1.00      0.20      0.33        10

   micro avg       0.55      0.55      0.55       125
   macro avg       0.90      0.37      0.39       125
weighted avg       0.78      0.55      0.47       125
C =8.625, Accuracy:55.2 %
              precision    recall  f1-score   support

      ceplok       1.00      0.06      0.12        16
      kawung       1.00      0.43      0.61        23
       nitik       1.00      0.13      0.23        23
      parang       0.49      1.00      0.65        53
       semen       1.00      0.20      0.33        10

   micro avg       0.55      0.55      0.55       125
   macro avg       0.90      0.37      0.39       125
weighted avg       0.78      0.55      0.47       125
C =8.75, Accuracy:55.2 %
              precision    recall  f1-score   support

      ceplok       1.00      0.06      0.12        16
      kawung       1.00      0.43      0.61        23
       nitik       1.00      0.13      0.23        23
      parang       0.49      1.00      0.65        53
       semen       1.00      0.20      0.33        10

   micro avg       0.55      0.55      0.55       125
   macro avg       0.90      0.37      0.39       125
weighted avg       0.78      0.55      0.47       125
C =8.875, Accuracy:55.2 %
              precision    recall  f1-score   support

      ceplok       1.00      0.06      0.12        16
      kawung       1.00      0.43      0.61        23
       nitik       1.00      0.13      0.23        23
      parang       0.49      1.00      0.65        53
       semen       1.00      0.20      0.33        10

   micro avg       0.55      0.55      0.55       125
   macro avg       0.90      0.37      0.39       125
weighted avg       0.78      0.55      0.47       125
C =9.0, Accuracy:55.2 %
              precision    recall  f1-score   support

      ceplok       1.00      0.06      0.12        16
      kawung       1.00      0.43      0.61        23
       nitik       1.00      0.13      0.23        23
      parang       0.49      1.00      0.65        53
       semen       1.00      0.20      0.33        10

   micro avg       0.55      0.55      0.55       125
   macro avg       0.90      0.37      0.39       125
weighted avg       0.78      0.55      0.47       125
C =9.125, Accuracy:55.2 %
              precision    recall  f1-score   support

      ceplok       1.00      0.06      0.12        16
      kawung       1.00      0.43      0.61        23
       nitik       1.00      0.13      0.23        23
      parang       0.49      1.00      0.65        53
       semen       1.00      0.20      0.33        10

   micro avg       0.55      0.55      0.55       125
   macro avg       0.90      0.37      0.39       125
weighted avg       0.78      0.55      0.47       125
C =9.25, Accuracy:55.2 %
              precision    recall  f1-score   support

      ceplok       1.00      0.06      0.12        16
      kawung       1.00      0.43      0.61        23
       nitik       1.00      0.13      0.23        23
      parang       0.49      1.00      0.65        53
       semen       1.00      0.20      0.33        10

   micro avg       0.55      0.55      0.55       125
   macro avg       0.90      0.37      0.39       125
weighted avg       0.78      0.55      0.47       125
C =9.375, Accuracy:55.2 %
              precision    recall  f1-score   support

      ceplok       1.00      0.06      0.12        16
      kawung       1.00      0.43      0.61        23
       nitik       1.00      0.13      0.23        23
      parang       0.49      1.00      0.65        53
       semen       1.00      0.20      0.33        10

   micro avg       0.55      0.55      0.55       125
   macro avg       0.90      0.37      0.39       125
weighted avg       0.78      0.55      0.47       125
C =9.5, Accuracy:55.2 %
              precision    recall  f1-score   support

      ceplok       1.00      0.06      0.12        16
      kawung       1.00      0.43      0.61        23
       nitik       1.00      0.13      0.23        23
      parang       0.49      1.00      0.65        53
       semen       1.00      0.20      0.33        10

   micro avg       0.55      0.55      0.55       125
   macro avg       0.90      0.37      0.39       125
weighted avg       0.78      0.55      0.47       125
C =9.625, Accuracy:55.2 %
              precision    recall  f1-score   support

      ceplok       1.00      0.06      0.12        16
      kawung       1.00      0.43      0.61        23
       nitik       1.00      0.13      0.23        23
      parang       0.49      1.00      0.65        53
       semen       1.00      0.20      0.33        10

   micro avg       0.55      0.55      0.55       125
   macro avg       0.90      0.37      0.39       125
weighted avg       0.78      0.55      0.47       125
C =9.75, Accuracy:55.2 %
              precision    recall  f1-score   support

      ceplok       1.00      0.06      0.12        16
      kawung       1.00      0.43      0.61        23
       nitik       1.00      0.13      0.23        23
      parang       0.49      1.00      0.65        53
       semen       1.00      0.20      0.33        10

   micro avg       0.55      0.55      0.55       125
   macro avg       0.90      0.37      0.39       125
weighted avg       0.78      0.55      0.47       125
C =9.875, Accuracy:55.2 %
              precision    recall  f1-score   support

      ceplok       1.00      0.06      0.12        16
      kawung       1.00      0.43      0.61        23
       nitik       1.00      0.13      0.23        23
      parang       0.49      1.00      0.65        53
       semen       1.00      0.20      0.33        10

   micro avg       0.55      0.55      0.55       125
   macro avg       0.90      0.37      0.39       125
weighted avg       0.78      0.55      0.47       125
C =10.0, Accuracy:55.2 %
              precision    recall  f1-score   support

      ceplok       1.00      0.06      0.12        16
      kawung       1.00      0.43      0.61        23
       nitik       1.00      0.13      0.23        23
      parang       0.49      1.00      0.65        53
       semen       1.00      0.20      0.33        10

   micro avg       0.55      0.55      0.55       125
   macro avg       0.90      0.37      0.39       125
weighted avg       0.78      0.55      0.47       125
C =10.125, Accuracy:55.2 %
              precision    recall  f1-score   support

      ceplok       1.00      0.06      0.12        16
      kawung       1.00      0.43      0.61        23
       nitik       1.00      0.13      0.23        23
      parang       0.49      1.00      0.65        53
       semen       1.00      0.20      0.33        10

   micro avg       0.55      0.55      0.55       125
   macro avg       0.90      0.37      0.39       125
weighted avg       0.78      0.55      0.47       125
C =10.25, Accuracy:55.2 %
              precision    recall  f1-score   support

      ceplok       1.00      0.06      0.12        16
      kawung       1.00      0.43      0.61        23
       nitik       1.00      0.13      0.23        23
      parang       0.49      1.00      0.65        53
       semen       1.00      0.20      0.33        10

   micro avg       0.55      0.55      0.55       125
   macro avg       0.90      0.37      0.39       125
weighted avg       0.78      0.55      0.47       125
C =10.375, Accuracy:55.2 %
              precision    recall  f1-score   support

      ceplok       1.00      0.06      0.12        16
      kawung       1.00      0.43      0.61        23
       nitik       1.00      0.13      0.23        23
      parang       0.49      1.00      0.65        53
       semen       1.00      0.20      0.33        10

   micro avg       0.55      0.55      0.55       125
   macro avg       0.90      0.37      0.39       125
weighted avg       0.78      0.55      0.47       125
C =10.5, Accuracy:55.2 %
              precision    recall  f1-score   support

      ceplok       1.00      0.06      0.12        16
      kawung       1.00      0.43      0.61        23
       nitik       1.00      0.13      0.23        23
      parang       0.49      1.00      0.65        53
       semen       1.00      0.20      0.33        10

   micro avg       0.55      0.55      0.55       125
   macro avg       0.90      0.37      0.39       125
weighted avg       0.78      0.55      0.47       125
C =10.625, Accuracy:55.2 %
              precision    recall  f1-score   support

      ceplok       1.00      0.06      0.12        16
      kawung       1.00      0.43      0.61        23
       nitik       1.00      0.13      0.23        23
      parang       0.49      1.00      0.65        53
       semen       1.00      0.20      0.33        10

   micro avg       0.55      0.55      0.55       125
   macro avg       0.90      0.37      0.39       125
weighted avg       0.78      0.55      0.47       125
C =10.75, Accuracy:55.2 %
              precision    recall  f1-score   support

      ceplok       1.00      0.06      0.12        16
      kawung       1.00      0.43      0.61        23
       nitik       1.00      0.13      0.23        23
      parang       0.49      1.00      0.65        53
       semen       1.00      0.20      0.33        10

   micro avg       0.55      0.55      0.55       125
   macro avg       0.90      0.37      0.39       125
weighted avg       0.78      0.55      0.47       125
C =10.875, Accuracy:55.2 %
              precision    recall  f1-score   support

      ceplok       1.00      0.06      0.12        16
      kawung       1.00      0.43      0.61        23
       nitik       1.00      0.13      0.23        23
      parang       0.49      1.00      0.65        53
       semen       1.00      0.20      0.33        10

   micro avg       0.55      0.55      0.55       125
   macro avg       0.90      0.37      0.39       125
weighted avg       0.78      0.55      0.47       125
